[
    {
        "fe_doc_type" : "ambulance_record",
        "organisation_id" : 123,
        "start_datetime": "09/12/2017 09:11:30",
        "end_datetime": "09/12/2017 9:28:49",
        "time_of_arrival": "09/12/2017 9:43:30"

    },
    {
        "fe_doc_type" : "ambulance_record",
        "organisation_id" : 123,
        "start_datetime": "09/12/2017 12:11:10",
        "end_datetime": "09/12/2017 12:23:07",
        "time_of_arrival": "09/12/2017 12:36:49"
    },
    {   
        "fe_doc_type" : "ambulance_record",
        "organisation_id" : 123,
        "start_datetime": "09/12/2017 01:10:40", 
        "end_datetime": "09/12/2017 01:24:11",
        "time_of_arrival": "09/12/2017 1:30:09"
    },
    {
        "fe_doc_type" : "ambulance_record",
        "organisation_id" : 123,
        "start_datetime": "09/12/2017 10:40:10",
        "end_datetime": "09/12/2017 10:52:09",
        "time_of_arrival": "09/12/2017 11:12:56"
    },
    {
        "fe_doc_type" : "ambulance_record",
        "organisation_id" : 123,
        "start_datetime": "09/12/2017 13:49:31",
        "end_datetime": "09/12/2017 13:58:29",
        "time_of_arrival": "09/12/2017 14:12:11"
    },
    {
        "fe_doc_type" : "ambulance_record",
        "organisation_id" : 123,
        "start_datetime": "09/12/2017 17:19:12",
        "end_datetime": "09/12/2017 17:32:49",
        "time_of_arrival": "09/12/2017 18:12:09"
    },
    {
        "fe_doc_type" : "ambulance_record",
        "organisation_id" : 123,
        "start_datetime": "09/12/2017 05:10:39",
        "end_datetime": "09/12/2017 05:19:11",
        "time_of_arrival": "09/12/2017 05:29:05"
    },
    {
        "fe_doc_type" : "ambulance_record",
        "organisation_id" : 123,
        "start_datetime": "09/12/2017 14:05:10",
        "end_datetime": "09/12/2017 14:19:49",
        "time_of_arrival": "09/12/2017 14:32:10"
    },
    {
        "fe_doc_type" : "ambulance_record",
        "organisation_id" : 123,
        "start_datetime": "09/12/2017 10:05:10",
        "end_datetime": "09/12/2017 10:12:29",
        "time_of_arrival": "09/12/2017 10:21:57"
    },
    {
        "fe_doc_type" : "ambulance_record",
        "organisation_id" : 123,
        "start_datetime": "09/12/2017 19:30:29",
        "end_datetime": "09/12/2017 19:41:10",
        "time_of_arrival": "09/12/2017 19:58:11"
    }
]